EDLD 651: Fall 2024 - Week 2: Workflow
…
#.csv
exam1 <- import(here("data", "Project_Reads_Scores.csv")) %>% 
  as_tibble()

You can even read directly from the web 😲

Fatality.txt

import("https://raw.githubusercontent.com/jnese/intro-DS-R_fall-2024/master/data/Fatality.txt",
       setclass = "tbl_df")

# A tibble: 336 × 10
   state  year mrall beertax  mlda jaild comserd vmiles unrate perinc
   <int> <int> <dbl>   <dbl> <dbl> <chr> <chr>    <dbl>  <dbl>  <dbl>
 1     1  1982  2.13   1.54   19   no    no        7.23  14.4  10544.
 2     1  1983  2.35   1.79   19   no    no        7.84  13.7  10733.
 3     1  1984  2.34   1.71   19   no    no        8.26  11.1  11109.
 4     1  1985  2.19   1.65   19.7 no    no        8.73   8.90 11333.
 5     1  1986  2.67   1.61   21   no    no        8.95   9.80 11662.
 6     1  1987  2.72   1.56   21   no    no        9.17   7.80 11944 
 7     1  1988  2.49   1.50   21   no    no        9.67   7.20 12369.
 8     4  1982  2.50   0.215  19   yes   yes       6.81   9.90 12309.
 9     4  1983  2.27   0.206  19   yes   yes       6.59   9.10 12694.
10     4  1984  2.83   0.297  19   yes   yes       6.71   5    13266.
# ℹ 326 more rows
…
# rio::import()
penguins <- import(here("data", "Penguins.csv"), setclass = "tbl_df")

penguins <- import(here("data", "Penguins.csv"))

# readr::read_csv()
penguins <- read_csv(here("data", "Penguins.csv")) 

Note that this data is taken from the {palmerpenguins} package but has slight modifications

What do our data look like?

penguins

# A tibble: 344 × 8
   Species Island    `Bill Length (mm)` `Bill Depth (mm)` `Flipper Length (mm)`
   <chr>   <chr>                  <dbl>             <dbl>                 <dbl>
 1 Adelie  Torgersen               39.1              18.7                   181
 2 Adelie  Torgersen               39.5              17.4                   186
 3 Adelie  Torgersen               40.3              18                     195
 4 Adelie  Torgersen               NA                NA                      NA
 5 Adelie  Torgersen               36.7              19.3                   193
 6 Adelie  Torgersen               39.3              20.6                   190
 7 Adelie  Torgersen               38.9              17.8                   181
 8 Adelie  Torgersen               39.2              19.6                   195
 9 Adelie  Torgersen               34.1              18.1                   193
10 Adelie  Torgersen               42                20.2                   190
# ℹ 334 more rows
# ℹ 3 more variables: `Body Mass (g)` <dbl>, Sex <chr>, Year <dbl>
…
Let’s look at ?count and ?tabyl

Why use %>%

Chaining arguments is efficient and easy to read

. . .

penguins %>% 
  filter(species == "Adelie",
         bill_length_mm > 40) %>% 
  select(island, bill_length_mm, body_mass_g) %>% 
  arrange(bill_length_mm) 

# A tibble: 51 × 3
   island    bill_length_mm body_mass_g
   <chr>              <dbl>       <dbl>
 1 Biscoe              40.1        4300
 2 Torgersen           40.2        3450
 3 Dream               40.2        3975
 4 Dream               40.2        3400
 5 Torgersen           40.3        3250
 6 Dream               40.3        4350
 7 Biscoe              40.5        3200
 8 Biscoe              40.5        3950
 9 Biscoe              40.6        3550
10 Biscoe              40.6        3800
# ℹ 41 more rows
…
